Chapter 4 Looping with datasets | Various exercises on programming in R
…
4.6 Accumulating all tibbles into a single big tibble

Now try to accumulate all tibbles into a big one. Before we start our for loop, we assign an empty tibble (i.e., tibble()) to a variable, say super_tbl. Starting with an empty tibble makes sure that when we run our script again, super_tbl does not retain the contents of any previous runs of the same script.

Then, during each iteration of the for-loop, we append the contents of each excel sheet to this super_tbl variable by using the function bind_rows(). We then assign the result of this function back to super_tbl, so that super_tbl grows during each iteration with the contents of each excel sheet.

Finally, we then just use print(super_tbl) and the summary() function to inspect the result

## # A tibble: 300 × 3
##    treatment individual  size
##        <dbl>      <dbl> <dbl>
##  1         1          1  3.27
##  2         2          1  5.87
##  3         3          1  9.25
##  4         1          2  2.93
##  5         2          2  5.25
##  6         3          2  9.58
##  7         1          3  4.18
##  8         2          3  6.27
##  9         3          3  9.37
## 10         1          4  1.40
## # … with 290 more rows
…
